#
# A fatal error has been detected by the Java Runtime Environment:
#
#  Internal Error (javaClasses.cpp:124), pid=4312, tid=5068
#  fatal error: Invalid layout of preloaded class
#
# JRE version:  (8.0_11-b12) (build )
# Java VM: Java HotSpot(TM) Client VM (25.11-b03 mixed mode windows-x86 )
# Failed to write core dump. Minidumps are not enabled by default on client versions of Windows
#
# If you would like to submit a bug report, please visit:
#   http://bugreport.sun.com/bugreport/crash.jsp
#

---------------  T H R E A D  ---------------

Current thread (0x019cbc00):  JavaThread "Unknown thread" [_thread_in_vm, id=5068, stack(0x019d0000,0x01a20000)]

Stack: [0x019d0000,0x01a20000],  sp=0x01a1f6b4,  free space=317k
Native frames: (J=compiled Java code, j=interpreted, Vv=VM code, C=native code)
V  [jvm.dll+0x19231b]
V  [jvm.dll+0x18b3f6]
V  [jvm.dll+0x3ae6a]
V  [jvm.dll+0x3b020]
V  [jvm.dll+0x49d23]
V  [jvm.dll+0x9c39e]
V  [jvm.dll+0x9c662]
V  [jvm.dll+0x140b01]
V  [jvm.dll+0x164898]
V  [jvm.dll+0xd8d11]
C  [javaw.exe+0x13ce]
C  [javaw.exe+0x1e85]
C  [javaw.exe+0xab91]
C  [javaw.exe+0xac1b]
C  [KERNEL32.DLL+0x4198]
C  [ntdll.dll+0x532b1]
C  [ntdll.dll+0x5327f]


---------------  P R O C E S S  ---------------

Java Threads: ( => current thread )

Other Threads:

=>0x019cbc00 (exited) JavaThread "Unknown thread" [_thread_in_vm, id=5068, stack(0x019d0000,0x01a20000)]

VM state:not at safepoint (not fully initialized)

VM Mutex/Monitor currently owned by a thread: None

GC Heap History (0 events):
No events

Deoptimization events (0 events):
No events

Internal exceptions (0 events):
No events

Events (10 events):
Event: 0.030 loading class java/lang/CharSequence done
Event: 0.030 loading class java/lang/String done
Event: 0.030 loading class java/lang/Class
Event: 0.031 loading class java/lang/reflect/AnnotatedElement
Event: 0.031 loading class java/lang/reflect/AnnotatedElement done
Event: 0.031 loading class java/lang/reflect/GenericDeclaration
Event: 0.031 loading class java/lang/reflect/GenericDeclaration done
Event: 0.031 loading class java/lang/reflect/Type
Event: 0.032 loading class java/lang/reflect/Type done
Event: 0.032 loading class java/lang/Class done


Dynamic libraries:
0x00080000 - 0x000b0000 	C:\Program Files\Java\jre8\bin\javaw.exe
0x77b60000 - 0x77cc9000 	C:\Windows\SYSTEM32\ntdll.dll
0x75f70000 - 0x76070000 	C:\Windows\system32\KERNEL32.DLL
0x75400000 - 0x754d9000 	C:\Windows\system32\KERNELBASE.dll
0x742e0000 - 0x74380000 	C:\Windows\system32\apphelp.dll
0x6e0e0000 - 0x6e346000 	C:\Windows\AppPatch\AcGenral.DLL
0x75b50000 - 0x75c13000 	C:\Windows\system32\msvcrt.dll
0x76070000 - 0x760b1000 	C:\Windows\SYSTEM32\sechost.dll
0x75250000 - 0x75274000 	C:\Windows\SYSTEM32\SspiCli.dll
0x77840000 - 0x77885000 	C:\Windows\system32\SHLWAPI.dll
0x743c0000 - 0x744ae000 	C:\Windows\SYSTEM32\UxTheme.dll
0x759f0000 - 0x75b45000 	C:\Windows\system32\USER32.dll
0x76130000 - 0x76242000 	C:\Windows\system32\GDI32.dll
0x70580000 - 0x705a3000 	C:\Windows\SYSTEM32\WINMM.dll
0x71250000 - 0x71263000 	C:\Windows\SYSTEM32\samcli.dll
0x77710000 - 0x77838000 	C:\Windows\system32\ole32.dll
0x77890000 - 0x77925000 	C:\Windows\system32\OLEAUT32.dll
0x70460000 - 0x70477000 	C:\Windows\SYSTEM32\MSACM32.dll
0x70450000 - 0x70458000 	C:\Windows\SYSTEM32\VERSION.dll
0x76250000 - 0x774fc000 	C:\Windows\system32\SHELL32.dll
0x74b30000 - 0x74b4b000 	C:\Windows\SYSTEM32\USERENV.dll
0x73910000 - 0x7392a000 	C:\Windows\SYSTEM32\dwmapi.dll
0x701b0000 - 0x702fa000 	C:\Windows\SYSTEM32\urlmon.dll
0x75e20000 - 0x75e9c000 	C:\Windows\system32\ADVAPI32.dll
0x6e070000 - 0x6e0d5000 	C:\Windows\SYSTEM32\WINSPOOL.DRV
0x70190000 - 0x701a6000 	C:\Windows\SYSTEM32\MPR.dll
0x75ea0000 - 0x75f70000 	C:\Windows\system32\RPCRT4.dll
0x779d0000 - 0x77b4d000 	C:\Windows\SYSTEM32\combase.dll
0x6e040000 - 0x6e063000 	C:\Windows\SYSTEM32\WINMMBASE.dll
0x75380000 - 0x7538f000 	C:\Windows\SYSTEM32\profapi.dll
0x6fe70000 - 0x700a2000 	C:\Windows\SYSTEM32\iertutil.dll
0x6fc90000 - 0x6fe63000 	C:\Windows\SYSTEM32\WININET.dll
0x754e0000 - 0x7551c000 	C:\Windows\SYSTEM32\cfgmgr32.dll
0x74500000 - 0x74521000 	C:\Windows\SYSTEM32\DEVOBJ.dll
0x77500000 - 0x7758b000 	C:\Windows\system32\SHCORE.DLL
0x759c0000 - 0x759e6000 	C:\Windows\system32\IMM32.DLL
0x75c20000 - 0x75d32000 	C:\Windows\system32\MSCTF.dll
0x73400000 - 0x73606000 	C:\Windows\WinSxS\x86_microsoft.windows.common-controls_6595b64144ccf1df_6.0.9600.17784_none_a9f497a901334c74\COMCTL32.dll
0x6aab0000 - 0x6ab6f000 	C:\Program Files\Java\jre8\bin\msvcr100.dll
0x5dd50000 - 0x5e0e7000 	C:\Program Files\Java\jre8\bin\client\jvm.dll
0x73610000 - 0x73618000 	C:\Windows\SYSTEM32\WSOCK32.dll
0x760c0000 - 0x760c6000 	C:\Windows\system32\PSAPI.DLL
0x75dd0000 - 0x75e20000 	C:\Windows\system32\WS2_32.dll
0x77b50000 - 0x77b57000 	C:\Windows\system32\NSI.dll
0x72f70000 - 0x72f7c000 	C:\Program Files\Java\jre8\bin\verify.dll
0x72c50000 - 0x72c71000 	C:\Program Files\Java\jre8\bin\java.dll
0x67530000 - 0x67543000 	C:\Program Files\Java\jre8\bin\zip.dll
0x68ea0000 - 0x68fe1000 	C:\Windows\SYSTEM32\dbghelp.dll

VM Arguments:
jvm_args: -Dfile.encoding=Cp1252 -Xbootclasspath:C:\Users\thao\Downloads\adt-bundle-windows-x86-20140702\sdk\platforms\android-19\android.jar 
java_command: <unknown>
java_class_path (initial): C:\Users\thao\workspace\cooking_helper\libs\android-support-v4.jar;C:\Users\thao\workspace\cooking_helper\libs\jsoup-1.8.1.jar;C:\Users\thao\workspace\cooking_helper\bin\classes
Launcher Type: SUN_STANDARD

Environment Variables:
PATH=C:/Program Files/Java/jre8/bin/client;C:/Program Files/Java/jre8/bin;C:/Program Files/Java/jre8/lib/i386;C:\Windows\system32;C:\Windows;C:\Windows\System32\Wbem;C:\Windows\System32\WindowsPowerShell\v1.0\;C:\xampp\php;C:\ProgramData\ComposerSetup\bin;C:\Program Files\Git\bin;C:\Program Files\TortoiseGit\bin;C:\Program Files\Rational\common;C:\Users\thao\Downloads\adt-bundle-windows-x86-20140702\eclipse;
USERNAME=thao
OS=Windows_NT
PROCESSOR_IDENTIFIER=x86 Family 6 Model 37 Stepping 5, GenuineIntel



---------------  S Y S T E M  ---------------

OS: Windows 8.1 Build 9600 

CPU:total 2 (2 cores per cpu, 1 threads per core) family 6 model 37 stepping 5, cmov, cx8, fxsr, mmx, sse, sse2, sse3, ssse3, popcnt, tsc, tscinvbit

Memory: 4k page, physical 1825648k(774768k free), swap 3267440k(1535844k free)

vm_info: Java HotSpot(TM) Client VM (25.11-b03) for windows-x86 JRE (1.8.0_11-b12), built on Jun 16 2014 18:18:58 by "java_re" with MS VC++ 10.0 (VS2010)

time: Wed Jun 03 18:15:36 2015
elapsed time: 0 seconds

